<?xml version="1.0" encoding="utf-8"?>
<!-- Generator: Adobe Illustrator 24.1.0, SVG Export Plug-In . SVG Version: 6.00 Build 0)  -->
<svg version="1.1" id="Layer_1" xmlns="http://www.w3.org/2000/svg" xmlns:xlink="http://www.w3.org/1999/xlink" x="0px" y="0px"
	 viewBox="0 0 205.66 204.51" style="enable-background:new 0 0 205.66 204.51;" xml:space="preserve">
<style type="text/css">
	.st0{fill:#FFFFFF;}
	.st1{fill:none;}
	.st2{fill:#63529E;}
</style>
<path class="st0" d="M98,154.96c-2.56-0.77-5.38-1.53-8.5-2.25c-9.21-2.13-12.13-7.37-12.96-11.4c-1.58-7.65,3.71-21,19.04-32.25
	c10.28-7.54,20.03-9.73,26.73-6l0.47,0.3c2.08,1.57,4.02,3.27,5.85,5.05c18.44-48.11-14.93-80.95-96.25-68.28
	C17.94,56.26,9.16,77.56,9.16,100.91c0,38.01,23.26,70.59,56.33,84.28C78.1,175.03,88.92,164.89,98,154.96z"/>
<path class="st0" d="M118.21,109.94c-0.89-0.44-1.96-0.65-3.17-0.65c-3.9,0-9.25,2.21-14.72,6.22
	c-10.02,7.35-17.17,18.2-15.94,24.19c0.19,0.94,0.78,3.8,6.92,5.22c23.67,5.47,32.81,12.94,36.17,18.77
	c5.95-4.82,9.27-11.06,9.69-18.3C137.84,133.35,130.24,119.14,118.21,109.94z"/>
<g>
	<path class="st1" d="M127.47,163.68c5.95-4.82,9.27-11.06,9.69-18.3c0.68-12.04-6.92-26.25-18.95-35.45
		c-0.89-0.44-1.96-0.65-3.17-0.65c-3.9,0-9.25,2.21-14.72,6.22c-10.02,7.35-17.17,18.2-15.94,24.19c0.19,0.94,0.78,3.8,6.92,5.22
		C114.98,150.38,124.12,157.86,127.47,163.68z"/>
	<path class="st2" d="M100.34,9.73c-27.01,0-51.27,11.75-67.97,30.4c81.32-12.67,114.69,20.17,96.25,68.28
		c-1.83-1.78-3.77-3.48-5.85-5.05l-0.47-0.3c-6.71-3.73-16.45-1.55-26.73,6c-15.33,11.25-20.61,24.6-19.04,32.25
		c0.83,4.03,3.75,9.27,12.96,11.4c3.12,0.72,5.94,1.47,8.5,2.25c-9.08,9.93-19.9,20.07-32.51,30.24
		c10.74,4.45,22.51,6.91,34.86,6.91c50.36,0,91.19-40.83,91.19-91.19C191.53,50.55,150.71,9.73,100.34,9.73z M91.3,144.91
		c-6.14-1.42-6.73-4.28-6.92-5.22c-1.23-5.99,5.92-16.84,15.94-24.19c5.47-4.01,10.83-6.22,14.72-6.22c1.21,0,2.29,0.21,3.17,0.65
		c12.03,9.2,19.63,23.41,18.95,35.45c-0.41,7.23-3.74,13.48-9.69,18.3C124.12,157.86,114.98,150.38,91.3,144.91z"/>
</g>
<path class="st2" d="M83.33,71.56c-7.68,0-13.91,6.23-13.91,13.91c0,7.68,6.23,13.91,13.91,13.91c7.68,0,13.91-6.23,13.91-13.91
	C97.24,77.79,91.01,71.56,83.33,71.56z M89.87,84.74c-1.93,0-3.49-1.56-3.49-3.49c0-1.93,1.56-3.49,3.49-3.49
	c1.93,0,3.49,1.56,3.49,3.49C93.36,83.18,91.8,84.74,89.87,84.74z"/>
</svg>
